{
	"process_id" : 5732,
	"version" : "2019.1.14f1",
	"app_path" : "/Applications/Unity/Hub/Editor/2019.1.14f1/Unity.app",
	"app_contents_path" : "/Applications/Unity/Hub/Editor/2019.1.14f1/Unity.app/Contents"
}